[{
  "file": "D:\\Waffle\\Documents\\leanprograming\\LPAcademy\\LearningToCode\\main.cpp",
  "directory": "D:\\Waffle\\Documents\\leanprograming\\LPAcademy\\LearningToCode",
  "command": "clang  -c D:\\Waffle\\Documents\\leanprograming\\LPAcademy\\LearningToCode\\main.cpp -o D:\\Waffle\\Documents\\leanprograming\\LPAcademy\\LearningToCode\\main.cpp.o -target x86_64-pc-windows-gnu -IC:\\mingw-w64\\x86_64-8.1.0-posix-sjlj-rt_v6-rev0\\mingw64\\lib\\gcc\\x86_64-w64-mingw32\\8.1.0\\include\\c++ -IC:\\mingw-w64\\x86_64-8.1.0-posix-sjlj-rt_v6-rev0\\mingw64\\lib\\gcc\\x86_64-w64-mingw32\\8.1.0\\include\\c++\\x86_64-w64-mingw32 -IC:\\mingw-w64\\x86_64-8.1.0-posix-sjlj-rt_v6-rev0\\mingw64\\lib\\gcc\\x86_64-w64-mingw32\\8.1.0\\include\\c++\\backward -IC:\\mingw-w64\\x86_64-8.1.0-posix-sjlj-rt_v6-rev0\\mingw64\\lib\\gcc\\x86_64-w64-mingw32\\8.1.0\\include -IC:\\mingw-w64\\x86_64-8.1.0-posix-sjlj-rt_v6-rev0\\mingw64\\lib\\gcc\\x86_64-w64-mingw32\\8.1.0\\include-fixed -IC:\\mingw-w64\\x86_64-8.1.0-posix-sjlj-rt_v6-rev0\\mingw64\\x86_64-w64-mingw32\\include -I. -I.  -g  -O0  -Wall"
 }]